<?xml version="1.0" encoding="UTF-8" standalone="no"?>
<!-- Created with Inkscape (http://www.inkscape.org/) -->

<svg
   xmlns:dc="http://purl.org/dc/elements/1.1/"
   xmlns:cc="http://creativecommons.org/ns#"
   xmlns:rdf="http://www.w3.org/1999/02/22-rdf-syntax-ns#"
   xmlns:svg="http://www.w3.org/2000/svg"
   xmlns="http://www.w3.org/2000/svg"
   xmlns:sodipodi="http://sodipodi.sourceforge.net/DTD/sodipodi-0.dtd"
   xmlns:inkscape="http://www.inkscape.org/namespaces/inkscape"
   width="210mm"
   height="297mm"
   viewBox="0 0 210 297"
   version="1.1"
   id="svg8"
   inkscape:version="0.92.1 r15371"
   sodipodi:docname="drawing.svg"
   inkscape:export-filename="/homes/odejong/thema08/drawing_neuron.png"
   inkscape:export-xdpi="90.495926"
   inkscape:export-ydpi="90.495926">
  <defs
     id="defs2">
    <marker
       inkscape:stockid="Arrow1Lend"
       orient="auto"
       refY="0.0"
       refX="0.0"
       id="Arrow1Lend"
       style="overflow:visible;"
       inkscape:isstock="true">
      <path
         id="path4083"
         d="M 0.0,0.0 L 5.0,-5.0 L -12.5,0.0 L 5.0,5.0 L 0.0,0.0 z "
         style="fill-rule:evenodd;stroke:#000000;stroke-width:1pt;stroke-opacity:1;fill:#000000;fill-opacity:1"
         transform="scale(0.8) rotate(180) translate(12.5,0)" />
    </marker>
    <marker
       inkscape:stockid="Arrow1Mstart"
       orient="auto"
       refY="0.0"
       refX="0.0"
       id="marker3902"
       style="overflow:visible"
       inkscape:isstock="true">
      <path
         id="path3900"
         d="M 0.0,0.0 L 5.0,-5.0 L -12.5,0.0 L 5.0,5.0 L 0.0,0.0 z "
         style="fill-rule:evenodd;stroke:#000000;stroke-width:1pt;stroke-opacity:1;fill:#000000;fill-opacity:1"
         transform="scale(0.4) translate(10,0)" />
    </marker>
    <marker
       inkscape:isstock="true"
       style="overflow:visible;"
       id="marker3796"
       refX="0.0"
       refY="0.0"
       orient="auto"
       inkscape:stockid="Arrow1Mend">
      <path
         transform="scale(0.4) rotate(180) translate(10,0)"
         style="fill-rule:evenodd;stroke:#000000;stroke-width:1pt;stroke-opacity:1;fill:#000000;fill-opacity:1"
         d="M 0.0,0.0 L 5.0,-5.0 L -12.5,0.0 L 5.0,5.0 L 0.0,0.0 z "
         id="path3794" />
    </marker>
    <marker
       inkscape:isstock="true"
       style="overflow:visible"
       id="marker1239"
       refX="0.0"
       refY="0.0"
       orient="auto"
       inkscape:stockid="Arrow1Mstart"
       inkscape:collect="always">
      <path
         transform="scale(0.4) translate(10,0)"
         style="fill-rule:evenodd;stroke:#000000;stroke-width:1pt;stroke-opacity:1;fill:#000000;fill-opacity:1"
         d="M 0.0,0.0 L 5.0,-5.0 L -12.5,0.0 L 5.0,5.0 L 0.0,0.0 z "
         id="path1237" />
    </marker>
    <marker
       inkscape:stockid="Arrow1Mstart"
       orient="auto"
       refY="0.0"
       refX="0.0"
       id="marker7809"
       style="overflow:visible"
       inkscape:isstock="true"
       inkscape:collect="always">
      <path
         id="path7807"
         d="M 0.0,0.0 L 5.0,-5.0 L -12.5,0.0 L 5.0,5.0 L 0.0,0.0 z "
         style="fill-rule:evenodd;stroke:#000000;stroke-width:1pt;stroke-opacity:1;fill:#000000;fill-opacity:1"
         transform="scale(0.4) translate(10,0)" />
    </marker>
    <marker
       inkscape:stockid="Arrow1Mend"
       orient="auto"
       refY="0.0"
       refX="0.0"
       id="marker7745"
       style="overflow:visible;"
       inkscape:isstock="true"
       inkscape:collect="always">
      <path
         id="path7743"
         d="M 0.0,0.0 L 5.0,-5.0 L -12.5,0.0 L 5.0,5.0 L 0.0,0.0 z "
         style="fill-rule:evenodd;stroke:#000000;stroke-width:1pt;stroke-opacity:1;fill:#000000;fill-opacity:1"
         transform="scale(0.4) rotate(180) translate(10,0)" />
    </marker>
    <marker
       inkscape:stockid="Arrow1Mend"
       orient="auto"
       refY="0.0"
       refX="0.0"
       id="Arrow1Mend"
       style="overflow:visible;"
       inkscape:isstock="true">
      <path
         id="path5130"
         d="M 0.0,0.0 L 5.0,-5.0 L -12.5,0.0 L 5.0,5.0 L 0.0,0.0 z "
         style="fill-rule:evenodd;stroke:#000000;stroke-width:1pt;stroke-opacity:1;fill:#000000;fill-opacity:1"
         transform="scale(0.4) rotate(180) translate(10,0)" />
    </marker>
    <marker
       inkscape:stockid="Arrow1Mstart"
       orient="auto"
       refY="0.0"
       refX="0.0"
       id="marker6481"
       style="overflow:visible"
       inkscape:isstock="true">
      <path
         id="path6479"
         d="M 0.0,0.0 L 5.0,-5.0 L -12.5,0.0 L 5.0,5.0 L 0.0,0.0 z "
         style="fill-rule:evenodd;stroke:#000000;stroke-width:1pt;stroke-opacity:1;fill:#000000;fill-opacity:1"
         transform="scale(0.4) translate(10,0)" />
    </marker>
    <marker
       inkscape:stockid="Arrow2Lstart"
       orient="auto"
       refY="0.0"
       refX="0.0"
       id="marker6435"
       style="overflow:visible"
       inkscape:isstock="true">
      <path
         id="path6433"
         style="fill-rule:evenodd;stroke-width:0.625;stroke-linejoin:round;stroke:#000000;stroke-opacity:1;fill:#000000;fill-opacity:1"
         d="M 8.7185878,4.0337352 L -2.2072895,0.016013256 L 8.7185884,-4.0017078 C 6.9730900,-1.6296469 6.9831476,1.6157441 8.7185878,4.0337352 z "
         transform="scale(1.1) translate(1,0)" />
    </marker>
    <marker
       inkscape:stockid="Arrow1Lstart"
       orient="auto"
       refY="0.0"
       refX="0.0"
       id="marker5469"
       style="overflow:visible"
       inkscape:isstock="true">
      <path
         id="path5467"
         d="M 0.0,0.0 L 5.0,-5.0 L -12.5,0.0 L 5.0,5.0 L 0.0,0.0 z "
         style="fill-rule:evenodd;stroke:#000000;stroke-width:1pt;stroke-opacity:1;fill:#000000;fill-opacity:1"
         transform="scale(0.8) translate(12.5,0)" />
    </marker>
    <marker
       inkscape:stockid="Arrow2Lstart"
       orient="auto"
       refY="0.0"
       refX="0.0"
       id="Arrow2Lstart"
       style="overflow:visible"
       inkscape:isstock="true">
      <path
         id="path5139"
         style="fill-rule:evenodd;stroke-width:0.625;stroke-linejoin:round;stroke:#000000;stroke-opacity:1;fill:#000000;fill-opacity:1"
         d="M 8.7185878,4.0337352 L -2.2072895,0.016013256 L 8.7185884,-4.0017078 C 6.9730900,-1.6296469 6.9831476,1.6157441 8.7185878,4.0337352 z "
         transform="scale(1.1) translate(1,0)" />
    </marker>
    <marker
       inkscape:stockid="Arrow1Mstart"
       orient="auto"
       refY="0.0"
       refX="0.0"
       id="Arrow1Mstart"
       style="overflow:visible"
       inkscape:isstock="true">
      <path
         id="path5127"
         d="M 0.0,0.0 L 5.0,-5.0 L -12.5,0.0 L 5.0,5.0 L 0.0,0.0 z "
         style="fill-rule:evenodd;stroke:#000000;stroke-width:1pt;stroke-opacity:1;fill:#000000;fill-opacity:1"
         transform="scale(0.4) translate(10,0)" />
    </marker>
    <marker
       inkscape:stockid="Arrow1Lstart"
       orient="auto"
       refY="0.0"
       refX="0.0"
       id="Arrow1Lstart"
       style="overflow:visible"
       inkscape:isstock="true">
      <path
         id="path5121"
         d="M 0.0,0.0 L 5.0,-5.0 L -12.5,0.0 L 5.0,5.0 L 0.0,0.0 z "
         style="fill-rule:evenodd;stroke:#000000;stroke-width:1pt;stroke-opacity:1;fill:#000000;fill-opacity:1"
         transform="scale(0.8) translate(12.5,0)" />
    </marker>
    <marker
       inkscape:stockid="Arrow1Mend"
       orient="auto"
       refY="0"
       refX="0"
       id="marker7745-3"
       style="overflow:visible"
       inkscape:isstock="true">
      <path
         inkscape:connector-curvature="0"
         id="path7743-6"
         d="M 0,0 5,-5 -12.5,0 5,5 Z"
         style="fill:#000000;fill-opacity:1;fill-rule:evenodd;stroke:#000000;stroke-width:1.00000003pt;stroke-opacity:1"
         transform="matrix(-0.4,0,0,-0.4,-4,0)" />
    </marker>
    <marker
       inkscape:isstock="true"
       style="overflow:visible"
       id="marker1239-2"
       refX="0"
       refY="0"
       orient="auto"
       inkscape:stockid="Arrow1Mstart">
      <path
         inkscape:connector-curvature="0"
         transform="matrix(0.4,0,0,0.4,4,0)"
         style="fill:#000000;fill-opacity:1;fill-rule:evenodd;stroke:#000000;stroke-width:1.00000003pt;stroke-opacity:1"
         d="M 0,0 5,-5 -12.5,0 5,5 Z"
         id="path1237-9" />
    </marker>
    <marker
       inkscape:stockid="Arrow1Mend"
       orient="auto"
       refY="0"
       refX="0"
       id="Arrow1Mend-1"
       style="overflow:visible"
       inkscape:isstock="true">
      <path
         inkscape:connector-curvature="0"
         id="path5130-2"
         d="M 0,0 5,-5 -12.5,0 5,5 Z"
         style="fill:#000000;fill-opacity:1;fill-rule:evenodd;stroke:#000000;stroke-width:1.00000003pt;stroke-opacity:1"
         transform="matrix(-0.4,0,0,-0.4,-4,0)" />
    </marker>
  </defs>
  <sodipodi:namedview
     id="base"
     pagecolor="#ffffff"
     bordercolor="#666666"
     borderopacity="1.0"
     inkscape:pageopacity="0.0"
     inkscape:pageshadow="2"
     inkscape:zoom="0.7"
     inkscape:cx="81.06901"
     inkscape:cy="559.13001"
     inkscape:document-units="mm"
     inkscape:current-layer="layer1"
     showgrid="false"
     inkscape:window-width="1920"
     inkscape:window-height="971"
     inkscape:window-x="0"
     inkscape:window-y="31"
     inkscape:window-maximized="1" />
  <metadata
     id="metadata5">
    <rdf:RDF>
      <cc:Work
         rdf:about="">
        <dc:format>image/svg+xml</dc:format>
        <dc:type
           rdf:resource="http://purl.org/dc/dcmitype/StillImage" />
        <dc:title />
      </cc:Work>
    </rdf:RDF>
  </metadata>
  <g
     inkscape:label="Layer 1"
     inkscape:groupmode="layer"
     id="layer1">
    <path
       style="fill:none;fill-rule:evenodd;stroke:#000000;stroke-width:1.06801808;stroke-linecap:butt;stroke-linejoin:miter;stroke-miterlimit:4;stroke-dasharray:none;stroke-opacity:1"
       d="M 84.693343,67.311347 C 92.950056,80.322498 83.104218,94.378171 70.030575,118.60847 86.316701,102.73737 102.91117,90.528026 126.45786,91.881237 119.99788,75.42019 150.28082,57.82892 139.93716,60.856655 126.05788,63.713806 118.81104,45.730428 118.81104,45.730428 108.30856,77.452407 94.133304,62.104114 84.693343,67.311347 Z"
       id="path12"
       inkscape:connector-curvature="0"
       sodipodi:nodetypes="cccccc" />
    <path
       style="fill:#393939;fill-opacity:1;stroke:none;stroke-width:0.05627872;stroke-miterlimit:4;stroke-dasharray:none"
       id="path4491"
       sodipodi:type="arc"
       sodipodi:cx="73.624496"
       sodipodi:cy="119.37078"
       sodipodi:rx="6.0194874"
       sodipodi:ry="3.6122215"
       sodipodi:start="0"
       sodipodi:end="6.1513022"
       sodipodi:open="true"
       d="m 79.643984,119.37078 a 6.0194874,3.6122215 0 0 1 -5.821056,3.61026 6.0194874,3.6122215 0 0 1 -6.204836,-3.37224 6.0194874,3.6122215 0 0 1 5.411973,-3.83258 6.0194874,3.6122215 0 0 1 6.561646,3.11955"
       transform="matrix(0.90374689,-0.42806724,0.36462164,0.93115576,0,0)" />
    <path
       style="fill:none;fill-rule:evenodd;stroke:#000000;stroke-width:1.11551428;stroke-linecap:butt;stroke-linejoin:miter;stroke-miterlimit:4;stroke-dasharray:none;stroke-opacity:1"
       d="m 70.030575,118.60847 c -4.782407,5.39796 -5.268703,15.63878 -7.760119,23.55643 -3.193501,6.71915 -2.867314,23.10101 -3.769825,30.27828 -0.624816,9.23884 4.798924,15.14338 6.256828,24.15315 2.568686,9.77332 3.908673,12.38059 9.393167,21.46672 4.72083,7.32998 6.100639,12.94538 12.279372,18.67193 6.317576,5.95562 9.776019,11.12916 16.510142,14.79415 4.58198,4.04676 7.10217,5.43967 11.47589,8.34112"
       id="path4537"
       inkscape:connector-curvature="0"
       sodipodi:nodetypes="cccccccc" />
    <path
       style="fill:none;fill-rule:evenodd;stroke:#000000;stroke-width:1.06665754;stroke-linecap:butt;stroke-linejoin:miter;stroke-miterlimit:4;stroke-dasharray:none;stroke-opacity:1"
       d="m 198.26334,253.52853 c -5.95844,1.50692 -11.50663,2.51139 -13.50526,7.4934 -1.98709,0.18025 14.49844,-1.32067 13.94528,-1.14439"
       id="path4573"
       inkscape:connector-curvature="0"
       sodipodi:nodetypes="ccc" />
    <path
       style="fill:none;fill-rule:evenodd;stroke:#000000;stroke-width:1.06665754;stroke-linecap:butt;stroke-linejoin:miter;stroke-miterlimit:4;stroke-dasharray:none;stroke-opacity:1"
       d="m 184.75808,261.02193 c 0,0 6.93016,6.53902 13.3818,5.87519"
       id="path4575"
       inkscape:connector-curvature="0"
       sodipodi:nodetypes="cc" />
    <path
       style="fill:none;fill-rule:evenodd;stroke:#000000;stroke-width:1.06665754;stroke-linecap:butt;stroke-linejoin:miter;stroke-miterlimit:4;stroke-dasharray:none;stroke-opacity:1"
       d="m 173.08489,273.54238 c -5.87319,-0.78365 -11.15958,-1.89347 -15.17815,2.11188 7.54202,1.5936 13.21734,4.14365 12.65545,4.1056"
       id="path4573-7"
       inkscape:connector-curvature="0"
       sodipodi:nodetypes="ccc" />
    <path
       style="fill:none;fill-rule:evenodd;stroke:#000000;stroke-width:1.06665754;stroke-linecap:butt;stroke-linejoin:miter;stroke-miterlimit:4;stroke-dasharray:none;stroke-opacity:1"
       d="m 157.90674,275.65426 c 0,0 4.17041,10.70709 10.08687,12.47837"
       id="path4575-5"
       inkscape:connector-curvature="0"
       sodipodi:nodetypes="cc" />
    <ellipse
       style="fill:#393939;fill-opacity:1;stroke:none;stroke-width:1.06665754;stroke-miterlimit:4;stroke-dasharray:none"
       id="path4616-1"
       cx="-18.778502"
       cy="323.06909"
       rx="1.642683"
       ry="1.521755"
       transform="rotate(-35.6)" />
    <ellipse
       style="fill:#393939;fill-opacity:1;stroke:none;stroke-width:1.06665754;stroke-miterlimit:4;stroke-dasharray:none"
       id="path4616-2"
       cx="-24.527891"
       cy="326.87347"
       rx="1.642683"
       ry="1.521755"
       transform="rotate(-35.6)" />
    <ellipse
       style="fill:#393939;fill-opacity:1;stroke:none;stroke-width:1.06665754;stroke-miterlimit:4;stroke-dasharray:none"
       id="path4616-0"
       cx="154.73628"
       cy="294.84525"
       rx="1.642683"
       ry="1.521755"
       transform="rotate(-8.9)" />
    <ellipse
       style="fill:#393939;fill-opacity:1;stroke:none;stroke-width:1.06665754;stroke-miterlimit:4;stroke-dasharray:none"
       id="path4616-9"
       cx="156.10519"
       cy="287.99734"
       rx="1.642683"
       ry="1.521755"
       transform="rotate(-8.9)" />
    <ellipse
       style="fill:#393939;fill-opacity:1;stroke:none;stroke-width:1.06665754;stroke-miterlimit:4;stroke-dasharray:none"
       id="path4616-3"
       cx="156.65276"
       cy="280.89578"
       rx="1.642683"
       ry="1.521755"
       transform="rotate(-8.9)" />
    <path
       style="fill:none;fill-rule:evenodd;stroke:#000000;stroke-width:1.06500006;stroke-linecap:butt;stroke-linejoin:miter;stroke-miterlimit:4;stroke-dasharray:none;stroke-opacity:1"
       d="m 184.75808,261.02193 c -8.66936,0.52741 -18.47265,4.45662 -31.29975,2.71617 l -15.49702,-0.37799 c -7.72243,-0.53333 -15.82285,-2.95653 -23.54528,-3.48986 7.59644,5.44702 16.70479,10.13809 25.05719,11.42737 0,0 10.02116,3.78637 18.43352,4.35664"
       id="path4693"
       inkscape:connector-curvature="0"
       sodipodi:nodetypes="cccccc" />
    <ellipse
       style="fill:#393939;fill-opacity:1;stroke:none;stroke-width:1.06665754;stroke-miterlimit:4;stroke-dasharray:none"
       id="path4616-2-6"
       cx="-30.539438"
       cy="332.24771"
       rx="1.642683"
       ry="1.521755"
       transform="rotate(-35.6)" />
    <path
       style="fill:none;fill-rule:evenodd;stroke:#000000;stroke-width:0.765;stroke-linecap:butt;stroke-linejoin:miter;stroke-miterlimit:4;stroke-dasharray:none;stroke-opacity:1"
       d="M 84.693341,67.311346 C 78.888814,62.357365 73.084287,57.403385 67.27976,52.449404"
       id="path4721"
       inkscape:connector-curvature="0"
       sodipodi:nodetypes="cc" />
    <path
       style="fill:none;fill-rule:evenodd;stroke:#000000;stroke-width:0.66500002;stroke-linecap:butt;stroke-linejoin:miter;stroke-miterlimit:4;stroke-dasharray:none;stroke-opacity:1"
       d="m 65.767857,42.244047 c -1.007937,5.291667 1.007935,6.803571 1.511903,10.205357 -6.614582,-4.630208 -13.229165,-4.91369 -13.229165,-4.91369"
       id="path4725"
       inkscape:connector-curvature="0"
       sodipodi:nodetypes="ccc" />
    <path
       style="fill:none;fill-rule:evenodd;stroke:#000000;stroke-width:0.66500002;stroke-linecap:butt;stroke-linejoin:miter;stroke-miterlimit:4;stroke-dasharray:none;stroke-opacity:1"
       d="m 75.21726,59.252976 c -5.827132,0.01575 -6.551586,1.259919 -9.827379,1.889879"
       id="path4727"
       inkscape:connector-curvature="0"
       sodipodi:nodetypes="cc" />
    <path
       style="fill:none;fill-rule:evenodd;stroke:#000000;stroke-width:0.66500002;stroke-linecap:butt;stroke-linejoin:miter;stroke-miterlimit:4;stroke-dasharray:none;stroke-opacity:1"
       d="m 75.21726,59.252976 c 0.251985,-2.897818 0.97644,-3.480532 0.755954,-8.693454"
       id="path4733"
       inkscape:connector-curvature="0"
       sodipodi:nodetypes="cc" />
    <path
       style="fill:none;fill-rule:evenodd;stroke:#000000;stroke-width:0.742;stroke-linecap:butt;stroke-linejoin:miter;stroke-miterlimit:4;stroke-dasharray:none;stroke-opacity:1"
       d="m 118.81104,45.730428 c -1.75797,-7.77671 -3.21681,-16.592856 -3.27971,-25.031024 3.02452,-2.393849 6.51436,-6.063368 8.77444,-10.583333"
       id="path4737"
       inkscape:connector-curvature="0"
       sodipodi:nodetypes="ccc" />
    <path
       style="fill:none;fill-rule:evenodd;stroke:#000000;stroke-width:0.66500002;stroke-linecap:butt;stroke-linejoin:miter;stroke-miterlimit:4;stroke-dasharray:none;stroke-opacity:1"
       d="m 115.53133,20.699404 c -2.42951,-4.830773 -3.42403,-6.942995 -8.69345,-8.693452"
       id="path4739"
       inkscape:connector-curvature="0"
       sodipodi:nodetypes="cc" />
    <path
       style="fill:none;fill-rule:evenodd;stroke:#000000;stroke-width:0.66500002;stroke-linecap:butt;stroke-linejoin:miter;stroke-miterlimit:4;stroke-dasharray:none;stroke-opacity:1"
       d="m 117.45471,37.991814 c 2.00013,-5.669642 4.23648,-7.60677 7.79576,-9.402157"
       id="path4741"
       inkscape:connector-curvature="0"
       sodipodi:nodetypes="cc" />
    <path
       style="fill:none;fill-rule:evenodd;stroke:#000000;stroke-width:0.74033147;stroke-linecap:butt;stroke-linejoin:miter;stroke-miterlimit:4;stroke-dasharray:none;stroke-opacity:1"
       d="m 116.38317,32.570503 c -4.6255,-2.184852 -6.66564,-4.212395 -9.8138,-7.498414"
       id="path4743"
       inkscape:connector-curvature="0"
       sodipodi:nodetypes="cc" />
    <path
       style="fill:none;fill-rule:evenodd;stroke:#000000;stroke-width:0.965;stroke-linecap:butt;stroke-linejoin:miter;stroke-miterlimit:4;stroke-dasharray:none;stroke-opacity:1"
       d="M 76.162201,221.40476 56.129464,204.39583 37.986607,195.89137 c -5.039682,0.44097 -3.464781,-1.95287 -15.119047,1.32292"
       id="path4766"
       inkscape:connector-curvature="0"
       sodipodi:nodetypes="cccc" />
    <path
       style="fill:none;fill-rule:evenodd;stroke:#000000;stroke-width:0.90609175;stroke-linecap:butt;stroke-linejoin:miter;stroke-miterlimit:4;stroke-dasharray:none;stroke-opacity:1"
       d="m 38.018494,195.9709 c -6.943131,-2.32723 -11.88664,-4.03387 -17.330055,-7.91258"
       id="path4770"
       inkscape:connector-curvature="0"
       sodipodi:nodetypes="cc" />
    <ellipse
       style="fill:#393939;fill-opacity:1;stroke:none;stroke-width:1.06500006;stroke-miterlimit:4;stroke-dasharray:none;opacity:0.5"
       id="path4772"
       cx="103.39266"
       cy="96.054245"
       rx="3.2102132"
       ry="5.6740375"
       transform="rotate(18.6)" />
    <ellipse
       style="opacity:0.5;fill:#393939;fill-opacity:1;stroke:none;stroke-width:1.06500006;stroke-miterlimit:4;stroke-dasharray:none"
       id="path4772-0"
       cx="104.0305"
       cy="106.33832"
       rx="3.2102132"
       ry="5.6740375"
       transform="rotate(18.6)" />
    <ellipse
       style="opacity:0.5;fill:#393939;fill-opacity:1;stroke:none;stroke-width:1.06500006;stroke-miterlimit:4;stroke-dasharray:none"
       id="path4772-6"
       cx="104.90489"
       cy="116.478"
       rx="3.2102132"
       ry="5.6740375"
       transform="rotate(18.6)" />
    <ellipse
       style="opacity:0.5;fill:#393939;fill-opacity:1;stroke:none;stroke-width:1.06500006;stroke-miterlimit:4;stroke-dasharray:none"
       id="path4772-2"
       cx="84.233932"
       cy="142.2683"
       rx="3.2102132"
       ry="5.6740375"
       transform="rotate(9.3)" />
    <ellipse
       style="opacity:0.5;fill:#393939;fill-opacity:1;stroke:none;stroke-width:1.06500006;stroke-miterlimit:4;stroke-dasharray:none"
       id="path4772-61"
       cx="50.101162"
       cy="177.02448"
       rx="3.2102132"
       ry="5.6740375"
       transform="rotate(-3.1)" />
    <ellipse
       style="opacity:0.5;fill:#393939;fill-opacity:1;stroke:none;stroke-width:1.06500006;stroke-miterlimit:4;stroke-dasharray:none"
       id="path4772-8"
       cx="76.422173"
       cy="156.56197"
       rx="3.2102132"
       ry="5.6740375"
       transform="rotate(6.2)" />
    <ellipse
       style="opacity:0.5;fill:#393939;fill-opacity:1;stroke:none;stroke-width:1.06500006;stroke-miterlimit:4;stroke-dasharray:none"
       id="path4772-7"
       cx="14.473383"
       cy="203.99684"
       rx="3.2102132"
       ry="5.6740375"
       transform="rotate(-14.3)" />
    <ellipse
       style="opacity:0.5;fill:#393939;fill-opacity:1;stroke:none;stroke-width:1.06500006;stroke-miterlimit:4;stroke-dasharray:none"
       id="path4772-9"
       cx="12.952374"
       cy="193.51295"
       rx="3.2102132"
       ry="5.6740375"
       transform="rotate(-14.4)" />
    <ellipse
       style="opacity:0.5;fill:#393939;fill-opacity:1;stroke:none;stroke-width:1.06500006;stroke-miterlimit:4;stroke-dasharray:none"
       id="path4772-20"
       cx="-17.580091"
       cy="214.01704"
       rx="3.2102132"
       ry="5.6740375"
       transform="rotate(-22.9)" />
    <ellipse
       style="opacity:0.5;fill:#393939;fill-opacity:1;stroke:none;stroke-width:1.06500006;stroke-miterlimit:4;stroke-dasharray:none"
       id="path4772-23"
       cx="-17.488831"
       cy="224.79065"
       rx="3.2102132"
       ry="5.6740375"
       transform="rotate(-22.9)" />
    <ellipse
       style="opacity:0.5;fill:#393939;fill-opacity:1;stroke:none;stroke-width:1.06500006;stroke-miterlimit:4;stroke-dasharray:none"
       id="path4772-75"
       cx="-49.295044"
       cy="230.50171"
       rx="3.2102132"
       ry="5.6740375"
       transform="rotate(-31.2)" />
    <ellipse
       style="opacity:0.5;fill:#393939;fill-opacity:1;stroke:none;stroke-width:1.06500006;stroke-miterlimit:4;stroke-dasharray:none"
       id="path4772-92"
       cx="-46.307152"
       cy="241.59004"
       rx="3.2102132"
       ry="5.6740375"
       transform="rotate(-30.6)" />
    <ellipse
       style="opacity:0.5;fill:#393939;fill-opacity:1;stroke:none;stroke-width:1.06500006;stroke-miterlimit:4;stroke-dasharray:none"
       id="path4772-92-2"
       cx="-138.16936"
       cy="172.79474"
       rx="3.2102132"
       ry="5.6740375"
       transform="rotate(-55.500001)" />
    <ellipse
       style="opacity:0.5;fill:#393939;fill-opacity:1;stroke:none;stroke-width:1.06500006;stroke-miterlimit:4;stroke-dasharray:none"
       id="path4772-92-8"
       cx="-45.515594"
       cy="250.75247"
       rx="3.2102132"
       ry="5.6740375"
       transform="rotate(-30.600001)" />
    <ellipse
       style="opacity:0.5;fill:#393939;fill-opacity:1;stroke:none;stroke-width:1.06500006;stroke-miterlimit:4;stroke-dasharray:none"
       id="path4772-92-9"
       cx="-115.84355"
       cy="237.67792"
       rx="3.2102132"
       ry="5.6740375"
       transform="rotate(-47.200001)" />
    <ellipse
       style="opacity:0.5;fill:#393939;fill-opacity:1;stroke:none;stroke-width:1.06500006;stroke-miterlimit:4;stroke-dasharray:none"
       id="path4772-92-7"
       cx="-114.75354"
       cy="248.68918"
       rx="3.2102132"
       ry="5.6740375"
       transform="rotate(-47.200001)" />
    <ellipse
       style="opacity:0.5;fill:#393939;fill-opacity:1;stroke:none;stroke-width:0.97427088;stroke-miterlimit:4;stroke-dasharray:none"
       id="path4772-92-3"
       cx="-144.36143"
       cy="235.89752"
       rx="2.9611769"
       ry="5.1478028"
       transform="matrix(0.54862047,-0.83607152,0.81159334,0.58422278,0,0)" />
    <ellipse
       style="opacity:0.5;fill:#393939;fill-opacity:1;stroke:none;stroke-width:1.06500006;stroke-miterlimit:4;stroke-dasharray:none"
       id="path4772-92-6"
       cx="-210.99393"
       cy="195.66188"
       rx="3.2102132"
       ry="5.6740375"
       transform="rotate(-72.100001)" />
    <ellipse
       style="opacity:0.5;fill:#393939;fill-opacity:1;stroke:none;stroke-width:1.06500006;stroke-miterlimit:4;stroke-dasharray:none"
       id="path4772-92-1"
       cx="-236.30016"
       cy="173.87355"
       rx="3.2102132"
       ry="5.6740375"
       transform="rotate(-80.400001)" />
    <ellipse
       style="opacity:0.5;fill:#393939;fill-opacity:1;stroke:none;stroke-width:1.06500006;stroke-miterlimit:4;stroke-dasharray:none"
       id="path4772-92-94"
       cx="-136.84624"
       cy="161.50757"
       rx="3.2102132"
       ry="5.6740375"
       transform="rotate(-55.500001)" />
    <ellipse
       style="opacity:0.5;fill:#393939;fill-opacity:1;stroke:none;stroke-width:1.06500006;stroke-miterlimit:4;stroke-dasharray:none"
       id="path4772-92-78"
       cx="-158.65898"
       cy="129.30414"
       rx="3.2102132"
       ry="5.6740375"
       transform="rotate(-63.800001)" />
    <ellipse
       style="opacity:0.5;fill:#393939;fill-opacity:1;stroke:none;stroke-width:1.06500006;stroke-miterlimit:4;stroke-dasharray:none"
       id="path4772-92-4"
       cx="-186.41991"
       cy="68.12442"
       rx="3.2102132"
       ry="5.6740375"
       transform="rotate(-80.400001)" />
    <ellipse
       style="opacity:0.5;fill:#393939;fill-opacity:1;stroke:none;stroke-width:1.06500006;stroke-miterlimit:4;stroke-dasharray:none"
       id="path4772-92-5"
       cx="274.64563"
       cy="-133.53754"
       rx="3.2102132"
       ry="5.6740375"
       transform="rotate(85.599999)" />
    <ellipse
       style="opacity:0.5;fill:#393939;fill-opacity:1;stroke:none;stroke-width:1.06500006;stroke-miterlimit:4;stroke-dasharray:none"
       id="path4772-92-0"
       cx="-259.73892"
       cy="149.18762"
       rx="3.2102132"
       ry="5.6740375"
       transform="rotate(-88.700001)" />
    <ellipse
       style="opacity:0.5;fill:#393939;fill-opacity:1;stroke:none;stroke-width:1.06500006;stroke-miterlimit:4;stroke-dasharray:none"
       id="path4772-92-36"
       cx="-183.56128"
       cy="229.4303"
       rx="3.2102132"
       ry="5.6740375"
       transform="rotate(-63.800001)" />
    <ellipse
       style="opacity:0.5;fill:#393939;fill-opacity:1;stroke:none;stroke-width:1.06500006;stroke-miterlimit:4;stroke-dasharray:none"
       id="path4772-92-10"
       cx="-215.87825"
       cy="211.84444"
       rx="3.2102132"
       ry="5.6740375"
       transform="rotate(-72.100001)" />
    <ellipse
       style="opacity:0.5;fill:#393939;fill-opacity:1;stroke:none;stroke-width:1.06500006;stroke-miterlimit:4;stroke-dasharray:none"
       id="path4772-92-63"
       cx="-215.55429"
       cy="222.41266"
       rx="3.2102132"
       ry="5.6740375"
       transform="rotate(-72.100001)" />
    <ellipse
       style="opacity:0.5;fill:#393939;fill-opacity:1;stroke:none;stroke-width:1.06500006;stroke-miterlimit:4;stroke-dasharray:none"
       id="path4772-92-20"
       cx="-245.8177"
       cy="199.3371"
       rx="3.2102132"
       ry="5.6740375"
       transform="rotate(-80.400001)" />
    <ellipse
       style="opacity:0.5;fill:#393939;fill-opacity:1;stroke:none;stroke-width:1.06500006;stroke-miterlimit:4;stroke-dasharray:none"
       id="path4772-92-5-6"
       cx="275.52734"
       cy="-144.99625"
       rx="3.2102132"
       ry="5.6740375"
       transform="rotate(85.599999)" />
    <ellipse
       style="opacity:0.5;fill:#393939;fill-opacity:1;stroke:none;stroke-width:1.06500006;stroke-miterlimit:4;stroke-dasharray:none"
       id="path4772-92-5-1"
       cx="274.81015"
       cy="-156.578"
       rx="3.2102132"
       ry="5.6740375"
       transform="rotate(85.599999)" />
    <path
       style="fill:none;fill-rule:evenodd;stroke:#000000;stroke-width:0.76499999;stroke-linecap:butt;stroke-linejoin:miter;stroke-miterlimit:4;stroke-dasharray:none;stroke-opacity:1"
       d="m 139.93716,60.856655 c 6.49822,-4.00096 12.99651,-8.00185 19.49473,-12.00276"
       id="path4721-5"
       inkscape:connector-curvature="0"
       sodipodi:nodetypes="cc" />
    <path
       style="fill:none;fill-rule:evenodd;stroke:#000000;stroke-width:0.641;stroke-linecap:butt;stroke-linejoin:miter;stroke-miterlimit:4;stroke-dasharray:none;stroke-opacity:1"
       d="m 179.82095,50.55181 c -9.4686,-2.585553 -13.59268,-1.132017 -20.38906,-1.697915 12.90165,-4.871257 17.51556,-11.0785 17.51556,-11.0785"
       id="path4725-5"
       inkscape:connector-curvature="0"
       sodipodi:nodetypes="ccc" />
    <path
       style="fill:none;fill-rule:evenodd;stroke:#000000;stroke-width:0.66500002;stroke-linecap:butt;stroke-linejoin:miter;stroke-miterlimit:4;stroke-dasharray:none;stroke-opacity:1"
       d="m 150.51802,54.316065 c 1.77605,-5.54991 0.81475,-6.62173 1.22211,-9.93257"
       id="path4727-4"
       inkscape:connector-curvature="0"
       sodipodi:nodetypes="cc" />
    <path
       style="fill:none;fill-rule:evenodd;stroke:#000000;stroke-width:0.66500002;stroke-linecap:butt;stroke-linejoin:miter;stroke-miterlimit:4;stroke-dasharray:none;stroke-opacity:1"
       d="m 150.51802,54.316065 c 2.6801,1.13042 3.01193,1.99889 8.04027,3.39132"
       id="path4733-7"
       inkscape:connector-curvature="0"
       sodipodi:nodetypes="cc" />
    <path
       style="fill:none;fill-rule:evenodd;stroke:#000000;stroke-width:0.76499999;stroke-linecap:butt;stroke-linejoin:miter;stroke-miterlimit:4;stroke-dasharray:none;stroke-opacity:1"
       d="m 126.45786,91.881237 c 6.83063,3.402548 13.66121,6.805187 20.49178,10.207743"
       id="path4721-6"
       inkscape:connector-curvature="0"
       sodipodi:nodetypes="cc" />
    <path
       style="fill:none;fill-rule:evenodd;stroke:#000000;stroke-width:0.66500002;stroke-linecap:butt;stroke-linejoin:miter;stroke-miterlimit:4;stroke-dasharray:none;stroke-opacity:1"
       d="m 150.88554,111.62544 c -0.30217,-5.37832 -2.6239,-6.35765 -3.93593,-9.53643 7.53825,2.89247 14.02493,1.56732 14.02493,1.56732"
       id="path4725-56"
       inkscape:connector-curvature="0"
       sodipodi:nodetypes="ccc" />
    <path
       style="fill:none;fill-rule:evenodd;stroke:#000000;stroke-width:0.66500002;stroke-linecap:butt;stroke-linejoin:miter;stroke-miterlimit:4;stroke-dasharray:none;stroke-opacity:1"
       d="m 137.602,97.407783 c 5.65022,-1.425043 6.05218,-2.807464 9.07826,-4.211215"
       id="path4727-9"
       inkscape:connector-curvature="0"
       sodipodi:nodetypes="cc" />
    <path
       style="fill:none;fill-rule:evenodd;stroke:#000000;stroke-width:0.66500002;stroke-linecap:butt;stroke-linejoin:miter;stroke-miterlimit:4;stroke-dasharray:none;stroke-opacity:1"
       d="m 137.602,97.407783 c 0.45655,2.872697 -0.10542,3.613357 1.36965,8.618087"
       id="path4733-3"
       inkscape:connector-curvature="0"
       sodipodi:nodetypes="cc" />
    <path
       style="fill:none;fill-rule:evenodd;stroke:#000000;stroke-width:0.865;stroke-linecap:butt;stroke-linejoin:miter;stroke-opacity:1;stroke-miterlimit:4;stroke-dasharray:none"
       d="m 20.688439,188.05832 -7.270284,-4.0732"
       id="path5042"
       inkscape:connector-curvature="0" />
    <path
       style="fill:none;fill-rule:evenodd;stroke:#000000;stroke-width:0.865;stroke-linecap:butt;stroke-linejoin:miter;stroke-opacity:1;stroke-miterlimit:4;stroke-dasharray:none"
       d="m 22.86756,197.21429 -9.071429,1.13392"
       id="path5044"
       inkscape:connector-curvature="0" />
    <path
       style="fill:none;fill-rule:evenodd;stroke:#000000;stroke-width:0.72716361;stroke-linecap:butt;stroke-linejoin:miter;stroke-miterlimit:4;stroke-dasharray:5.81730894, 2.90865447;stroke-dashoffset:0;stroke-opacity:1"
       d="M 28.760168,66.738879 60.38014,52.145046"
       id="path5069"
       inkscape:connector-curvature="0" />
    <flowRoot
       xml:space="preserve"
       id="flowRoot5073"
       style="font-style:normal;font-weight:normal;font-size:40px;line-height:125%;font-family:Sans;letter-spacing:0px;word-spacing:0px;fill:#000000;fill-opacity:1;stroke:none;stroke-width:1px;stroke-linecap:butt;stroke-linejoin:miter;stroke-opacity:1"
       transform="matrix(0.26458333,0,0,0.26458333,-8.3154761,-16.252976)"><flowRegion
         id="flowRegion5075"><rect
           id="rect5077"
           width="122.85713"
           height="64.285728"
           x="65.714287"
           y="305.37683"
           ry="15.714286" /></flowRegion><flowPara
         id="flowPara5079"
         style="font-size:24px">dendriet</flowPara></flowRoot>    <path
       style="fill:none;fill-rule:evenodd;stroke:#000000;stroke-width:0.65845412;stroke-linecap:butt;stroke-linejoin:miter;stroke-miterlimit:4;stroke-dasharray:5.26763203, 2.63381604;stroke-dashoffset:0;stroke-opacity:1"
       d="m 113.84838,82.574445 34.34379,4.196528"
       id="path5069-4"
       inkscape:connector-curvature="0" />
    <flowRoot
       xml:space="preserve"
       id="flowRoot6230"
       style="font-style:normal;font-weight:normal;font-size:40px;line-height:125%;font-family:Sans;letter-spacing:0px;word-spacing:0px;fill:#000000;fill-opacity:1;stroke:none;stroke-width:1px;stroke-linecap:butt;stroke-linejoin:miter;stroke-opacity:1"
       transform="matrix(0.26458333,0,0,0.26458333,-5.6696434,3.4017856)"><flowRegion
         id="flowRegion6232"><rect
           id="rect6234"
           width="235.71428"
           height="85.714287"
           x="585.71429"
           y="288.23398" /></flowRegion><flowPara
         id="flowPara6236"
         style="font-size:24px">celkern</flowPara></flowRoot>    <ellipse
       style="opacity:0.5;fill:#393939;fill-opacity:1;stroke:none;stroke-width:0.62156647;stroke-miterlimit:4;stroke-dasharray:0, 0.62156649, 1.243133, 1.86469949, 2.48626599, 3.10783249, 3.72939898, 4.35096548, 4.97253198, 5.59409847, 6.21566497, 6.83723146, 7.45879797, 8.08036446, 8.70193095;stroke-dashoffset:0;paint-order:markers fill stroke"
       id="path6257"
       cx="83.389336"
       cy="109.75785"
       rx="21.023369"
       ry="13.730658"
       transform="matrix(0.94857219,-0.3165609,0.25733385,0.96632256,0,0)" />
    <path
       style="fill:none;fill-rule:evenodd;stroke:#000000;stroke-width:0.65563613;stroke-linecap:butt;stroke-linejoin:miter;stroke-miterlimit:4;stroke-dasharray:5.24508889, 2.62254444;stroke-dashoffset:0;stroke-opacity:1"
       d="M 57.266417,97.780115 91.656202,86.871671"
       id="path5069-5"
       inkscape:connector-curvature="0" />
    <flowRoot
       xml:space="preserve"
       id="flowRoot6276"
       style="font-style:normal;font-weight:normal;font-size:24px;line-height:125%;font-family:Sans;letter-spacing:0px;word-spacing:0px;fill:#000000;fill-opacity:1;stroke:none;stroke-width:1px;stroke-linecap:butt;stroke-linejoin:miter;stroke-opacity:1"
       transform="matrix(0.26458333,0,0,0.26458333,14.363095,2.2678571)"><flowRegion
         id="flowRegion6278"
         style="font-size:24px"><rect
           id="rect6280"
           width="134.28572"
           height="34.285686"
           x="28.571428"
           y="361.09113"
           style="font-size:24px" /></flowRegion><flowPara
         id="flowPara6282">cellichaam</flowPara></flowRoot>    <path
       style="fill:none;fill-rule:evenodd;stroke:#000000;stroke-width:0.48059908;stroke-linecap:butt;stroke-linejoin:miter;stroke-miterlimit:4;stroke-dasharray:3.84479248, 1.92239623;stroke-dashoffset:0;stroke-opacity:1"
       d="M 106.78767,126.27764 69.980231,118.5031"
       id="path5069-5-2"
       inkscape:connector-curvature="0" />
    <flowRoot
       xml:space="preserve"
       id="flowRoot6318"
       style="font-style:normal;font-weight:normal;font-size:40px;line-height:125%;font-family:Sans;letter-spacing:0px;word-spacing:0px;fill:#000000;fill-opacity:1;stroke:none;stroke-width:1px;stroke-linecap:butt;stroke-linejoin:miter;stroke-opacity:1"
       transform="matrix(0.26458333,0,0,0.26458333,-4.5357143,-13.607143)"><flowRegion
         id="flowRegion6320"><rect
           id="rect6322"
           width="98.246284"
           height="52.258671"
           x="433.18228"
           y="500.26102" /></flowRegion><flowPara
         id="flowPara6324"
         style="font-size:24px">axon</flowPara></flowRoot>    <path
       style="fill:none;fill-rule:evenodd;stroke:#000000;stroke-width:0.74168062;stroke-linecap:butt;stroke-linejoin:miter;stroke-miterlimit:4;stroke-dasharray:5.93344493, 2.96672246;stroke-dashoffset:0;stroke-opacity:1"
       d="m 59.775235,273.31175 32.395944,-21.0372"
       id="path5069-5-2-5"
       inkscape:connector-curvature="0" />
    <flowRoot
       xml:space="preserve"
       id="flowRoot6341"
       style="font-style:normal;font-weight:normal;font-size:40px;line-height:125%;font-family:Sans;letter-spacing:0px;word-spacing:0px;fill:#000000;fill-opacity:1;stroke:none;stroke-width:1px;stroke-linecap:butt;stroke-linejoin:miter;stroke-opacity:1"
       transform="matrix(0.26458333,0,0,0.26458333,-91.848214,123.97619)"><flowRegion
         id="flowRegion6343"><rect
           id="rect6345"
           width="198.5714"
           height="52.857143"
           x="384.28571"
           y="549.66254" /></flowRegion><flowPara
         id="flowPara6347"
         style="font-size:24px">myelineschede</flowPara></flowRoot>    <path
       style="fill:none;fill-rule:evenodd;stroke:#000000;stroke-width:1.026;stroke-linecap:butt;stroke-linejoin:miter;stroke-miterlimit:4;stroke-dasharray:1.026, 1.02600000000000002;stroke-dashoffset:0;stroke-opacity:1;marker-end:url(#marker7745-3)"
       d="M 81.818707,231.15692 108.30331,190.48593"
       id="path6349"
       inkscape:connector-curvature="0"
       sodipodi:nodetypes="cc" />
    <rect
       style="opacity:0.23000004;fill:#393939;fill-opacity:1;stroke:none;stroke-width:0.73072213;stroke-miterlimit:4;stroke-dasharray:none;stroke-dashoffset:0;paint-order:markers fill stroke"
       id="rect6355"
       width="131.52809"
       height="103.63832"
       x="114.59467"
       y="136.99812" />
    <path
       style="fill:none;fill-rule:evenodd;stroke:#000000;stroke-width:0.72856653;stroke-linecap:butt;stroke-linejoin:miter;stroke-miterlimit:4;stroke-dasharray:none;stroke-opacity:1;marker-start:url(#marker7809)"
       d="M 114.59466,137.15415 V 240.18189"
       id="path7733"
       inkscape:connector-curvature="0" />
    <path
       style="fill:none;fill-rule:evenodd;stroke:#000000;stroke-width:0.68949789;stroke-linecap:butt;stroke-linejoin:miter;stroke-miterlimit:4;stroke-dasharray:none;stroke-opacity:1;marker-end:url(#marker7745)"
       d="M 114.59466,216.54507 H 245.6547"
       id="path7737"
       inkscape:connector-curvature="0" />
    <path
       style="fill:none;fill-rule:evenodd;stroke:#000000;stroke-width:0.32288429px;stroke-linecap:butt;stroke-linejoin:miter;stroke-opacity:1"
       d="m 114.59466,228.81803 c 1.71626,-0.60607 3.43253,-0.53033 5.61687,-1.36366 2.96445,-1.55307 4.87575,-2.87883 7.02108,-5.00009 4.71971,-5.37889 4.6417,-12.0078 6.08492,-18.18216 1.24819,-6.81832 2.49638,-13.63663 3.74457,-20.45494 1.40422,-7.42439 2.80843,-14.84877 4.21265,-22.27315"
       id="path8153"
       inkscape:connector-curvature="0"
       sodipodi:nodetypes="cccccc" />
    <path
       style="fill:none;fill-rule:evenodd;stroke:#000000;stroke-width:0.32288429px;stroke-linecap:butt;stroke-linejoin:miter;stroke-opacity:1"
       d="m 141.27475,161.54403 c 0.7021,-2.72733 1.17017,-6.02285 2.10632,-8.18198 1.336,-2.75707 1.85286,-2.55955 2.95484,-0.0892 2.31806,8.55987 3.33472,19.33638 4.24857,27.66898"
       id="path8157"
       inkscape:connector-curvature="0"
       sodipodi:nodetypes="cccc" />
    <path
       style="fill:none;fill-rule:evenodd;stroke:#000000;stroke-width:0.32288429px;stroke-linecap:butt;stroke-linejoin:miter;stroke-opacity:1"
       d="m 150.58448,180.94179 1.10485,9.6937 c 0.56698,5.50821 1.13396,11.01643 1.70094,16.52465 0.42907,5.41677 1.42312,10.66713 2.83681,14.9475 1.40421,5.11373 4.46087,8.3541 7.26929,11.30871 2.76944,2.00762 4.40884,3.1532 7.29527,3.79715 3.39353,0.41668 6.29058,1.07442 8.63093,0.46834 2.96446,-0.30304 5.69489,-0.83335 8.19127,-1.59094 2.02831,-0.75759 4.6417,-1.85609 6.90406,-3.18188 2.80843,-1.78034 5.49983,-4.24251 8.07423,-5.56829 3.9786,-2.31065 8.07423,-2.80308 11.46774,-2.84096 3.90059,-0.26515 6.98207,-0.0758 10.18056,-0.11365 7.64516,-0.15151 14.23718,0.15152 21.88234,0"
       id="path8159"
       inkscape:connector-curvature="0"
       sodipodi:nodetypes="ccccccccccccc" />
    <path
       style="fill:none;fill-rule:evenodd;stroke:#000000;stroke-width:0.44542783;stroke-linecap:butt;stroke-linejoin:miter;stroke-miterlimit:4;stroke-dasharray:0.89085563, 0.89085563;stroke-dashoffset:0;stroke-opacity:1"
       d="M 115.0826,222.93626 H 246.14264"
       id="path7737-7"
       inkscape:connector-curvature="0" />
    <flowRoot
       xml:space="preserve"
       id="flowRoot1209"
       style="font-style:normal;font-weight:normal;font-size:16px;line-height:125%;font-family:Sans;letter-spacing:0px;word-spacing:0px;fill:#000000;fill-opacity:1;stroke:none;stroke-width:1px;stroke-linecap:butt;stroke-linejoin:miter;stroke-opacity:1"
       transform="matrix(0.32765008,0,0,0.31818787,-21.808381,-23.838173)"><flowRegion
         id="flowRegion1211"
         style="font-size:16px"><rect
           id="rect1213"
           width="76.771568"
           height="19.192883"
           x="462.14478"
           y="775.53229"
           style="font-size:16px" /></flowRegion><flowPara
         id="flowPara1215"
         style="font-size:16px">threshold</flowPara></flowRoot>    <path
       style="fill:none;fill-rule:evenodd;stroke:#000000;stroke-width:0.32288429;stroke-linecap:butt;stroke-linejoin:miter;stroke-miterlimit:4;stroke-dasharray:0.64576859, 0.64576859;stroke-dashoffset:0;stroke-opacity:1;marker-start:url(#marker1239);marker-end:url(#Arrow1Mend)"
       d="m 130.97717,210.18132 23.87165,-2e-5"
       id="path1217"
       inkscape:connector-curvature="0"
       sodipodi:nodetypes="cc" />
    <flowRoot
       xml:space="preserve"
       id="flowRoot2879"
       style="font-style:normal;font-weight:normal;font-size:13.33333397px;line-height:125%;font-family:Sans;letter-spacing:0px;word-spacing:0px;fill:#000000;fill-opacity:1;stroke:none;stroke-width:1px;stroke-linecap:butt;stroke-linejoin:miter;stroke-opacity:1"
       transform="matrix(0.32765008,0,0,0.31818787,-37.996657,-29.034053)"><flowRegion
         id="flowRegion2881"
         style="font-size:13.33333397px"><rect
           id="rect2883"
           width="148.57143"
           height="92.85714"
           x="536.42859"
           y="731.80542"
           style="font-size:13.33333397px" /></flowRegion><flowPara
         id="flowPara2885">1 ms</flowPara></flowRoot>    <flowRoot
       xml:space="preserve"
       id="flowRoot2899"
       style="font-style:normal;font-weight:normal;font-size:40px;line-height:125%;font-family:Sans;letter-spacing:0px;word-spacing:0px;fill:#000000;fill-opacity:1;stroke:none;stroke-width:1px;stroke-linecap:butt;stroke-linejoin:miter;stroke-opacity:1"
       transform="matrix(0.32765008,0,0,0.31818787,15.129464,-46.079831)"><flowRegion
         id="flowRegion2901"><rect
           id="rect2903"
           width="80.714294"
           height="52.142864"
           x="312.14285"
           y="552.51971" /></flowRegion><flowPara
         id="flowPara2905"
         style="font-size:10.66666698px">v(t)</flowPara></flowRoot>    <flowRoot
       xml:space="preserve"
       id="flowRoot2899-5"
       style="font-style:normal;font-weight:normal;font-size:40px;line-height:125%;font-family:Sans;letter-spacing:0px;word-spacing:0px;fill:#000000;fill-opacity:1;stroke:none;stroke-width:1px;stroke-linecap:butt;stroke-linejoin:miter;stroke-opacity:1"
       transform="matrix(0.26458333,0,0,0.26458333,121.5647,63.525438)"><flowRegion
         id="flowRegion2901-3"><rect
           id="rect2903-5"
           width="130.71431"
           height="62.857178"
           x="184.28571"
           y="153.23399" /></flowRegion><flowPara
         id="flowPara2905-6"
         style="font-size:10.66666698px" /><flowPara
         style="font-size:10.66666698px"
         id="flowPara2937" /></flowRoot>    <flowRoot
       xml:space="preserve"
       id="flowRoot2939"
       style="font-style:normal;font-weight:normal;font-size:10.66666698px;line-height:125%;font-family:Sans;letter-spacing:0px;word-spacing:0px;fill:#000000;fill-opacity:1;stroke:none;stroke-width:1px;stroke-linecap:butt;stroke-linejoin:miter;stroke-opacity:1"
       transform="matrix(0.32765008,0,0,0.31818787,62.872762,-72.44397)"><flowRegion
         id="flowRegion2941"
         style="font-size:10.66666698px"><rect
           id="rect2943"
           width="14.285712"
           height="18.571428"
           x="552.85712"
           y="912.51971"
           style="font-size:10.66666698px" /></flowRegion><flowPara
         id="flowPara2945">t</flowPara></flowRoot>    <path
       style="fill:none;fill-rule:evenodd;stroke:#000000;stroke-width:0.32288429;stroke-linecap:butt;stroke-linejoin:miter;stroke-miterlimit:4;stroke-dasharray:0.9686529, 0.3228843;stroke-dashoffset:0;stroke-opacity:1;marker-start:url(#marker3902);marker-end:url(#marker3796)"
       d="m 168.42289,152.22566 v 62.27392"
       id="path3786"
       inkscape:connector-curvature="0" />
    <flowRoot
       xml:space="preserve"
       id="flowRoot4042"
       style="font-style:normal;font-weight:normal;font-size:40px;line-height:125%;font-family:Sans;letter-spacing:0px;word-spacing:0px;fill:#000000;fill-opacity:1;stroke:none;stroke-width:1px;stroke-linecap:butt;stroke-linejoin:miter;stroke-opacity:1"
       transform="matrix(0.32765008,0,0,0.31818787,-9.4442926,-33.579594)"><flowRegion
         id="flowRegion4044"><rect
           id="rect4046"
           width="110.00002"
           height="52.142876"
           x="552.85712"
           y="644.66254" /></flowRegion><flowPara
         id="flowPara4048"
         style="font-size:13.33333397px">Action potential</flowPara></flowRoot>    <path
       style="fill:none;fill-rule:evenodd;stroke:#000000;stroke-width:0.31766212;stroke-linecap:butt;stroke-linejoin:miter;stroke-miterlimit:4;stroke-dasharray:2.54129686, 1.27064843;stroke-dashoffset:0;stroke-opacity:1"
       d="m 129.57296,150.63473 h 42.36047"
       id="path4050"
       inkscape:connector-curvature="0" />
  </g>
</svg>
